I do everything with R
…
# that created a useless column called "wm-r-class-folder"
# but also a very useful column called "information"
# now split column "information" into 2 new columns!
our_data_df[, c("condition", "variable") := tstrsplit(information, split = "_")]

dplyr::select(tibble::as_tibble(our_data_df), condition, variable)
```

```
## # A tibble: 450 × 2
##    condition   variable      
##    <chr>       <chr>         
##  1 condition-1 variable-a.csv
##  2 condition-1 variable-a.csv
##  3 condition-1 variable-a.csv
##  4 condition-1 variable-a.csv
##  5 condition-1 variable-a.csv
##  6 condition-1 variable-a.csv
##  7 condition-1 variable-a.csv
##  8 condition-1 variable-a.csv
##  9 condition-1 variable-a.csv
## 10 condition-1 variable-a.csv
## # ℹ 440 more rows
```
…
``` r
# convert "condition-1" to just 1, etc
our_data_df[, condition := as.numeric(sub(pattern = "condition-", replacement = "", x = condition))]

#first remove the ".csv"
our_data_df[, variable := sub(pattern = ".csv", replacement = "", x = variable)]

#then convert "variable-a" to just "a", etc
our_data_df[, variable := sub(pattern = "variable-", replacement = "", x = variable)]

dplyr::select(tibble::as_tibble(our_data_df), condition, variable)
```

```
## # A tibble: 450 × 2
##    condition variable
##        <dbl> <chr>   
##  1         1 a       
##  2         1 a       
##  3         1 a       
##  4         1 a       
##  5         1 a       
##  6         1 a       
##  7         1 a       
##  8         1 a       
##  9         1 a       
## 10         1 a       
## # ℹ 440 more rows
```
…
- ### So, we need to unravel the nest back to a long format data frame

--

``` r
iris_fit_lines <- unnest(iris_nest, 
                         cols = c(Species, plot_line)) %>% 
  dplyr::select(Species, x, y)

iris_fit_lines
```

```
## # A tibble: 213 × 3
##    Species     x     y
##    <fct>   <dbl> <dbl>
##  1 setosa    0    4.21
##  2 setosa    0.1  4.27
##  3 setosa    0.2  4.32
##  4 setosa    0.3  4.38
##  5 setosa    0.4  4.43
##  6 setosa    0.5  4.48
##  7 setosa    0.6  4.54
##  8 setosa    0.7  4.59
##  9 setosa    0.8  4.65
## 10 setosa    0.9  4.70
## # ℹ 203 more rows
```
…
